…
**Final table of pols_month**

``` r
pols_month_df
```

    ## # A tibble: 822 × 9
    ##     year month     gov_gop sen_gop rep_gop gov_dem sen_dem rep_dem president
    ##    <int> <fct>       <dbl>   <dbl>   <dbl>   <dbl>   <dbl>   <dbl> <chr>    
    ##  1  1947 January        23      51     253      23      45     198 dem      
    ##  2  1947 February       23      51     253      23      45     198 dem      
    ##  3  1947 March          23      51     253      23      45     198 dem      
    ##  4  1947 April          23      51     253      23      45     198 dem      
    ##  5  1947 May            23      51     253      23      45     198 dem      
    ##  6  1947 June           23      51     253      23      45     198 dem      
    ##  7  1947 July           23      51     253      23      45     198 dem      
    ##  8  1947 August         23      51     253      23      45     198 dem      
    ##  9  1947 September      23      51     253      23      45     198 dem      
    ## 10  1947 October        23      51     253      23      45     198 dem      
    ## # ℹ 812 more rows
…
**Final table of snp**

``` r
snp_df
```

    ## # A tibble: 787 × 3
    ##     year month     close
    ##    <dbl> <fct>     <dbl>
    ##  1  1950 January    17.0
    ##  2  1950 February   17.2
    ##  3  1950 March      17.3
    ##  4  1950 April      18.0
    ##  5  1950 May        18.8
    ##  6  1950 June       17.7
    ##  7  1950 July       17.8
    ##  8  1950 August     18.4
    ##  9  1950 September  19.5
    ## 10  1950 October    19.5
    ## # ℹ 777 more rows
…
    ## Rows: 68 Columns: 13
    ## ── Column specification ────────────────────────────────────────────────────────
    ## Delimiter: ","
    ## dbl (13): Year, Jan, Feb, Mar, Apr, May, Jun, Jul, Aug, Sep, Oct, Nov, Dec
    ## 
    ## ℹ Use `spec()` to retrieve the full column specification for this data.
    ## ℹ Specify the column types or set `show_col_types = FALSE` to quiet this message.

**Final table of umemployment**

``` r
unemp_df
```

    ## # A tibble: 816 × 3
    ##     year month     unemployment
    ##    <int> <fct>            <dbl>
    ##  1  1948 January            3.4
    ##  2  1948 February           3.8
    ##  3  1948 March              4  
    ##  4  1948 April              3.9
    ##  5  1948 May                3.5
    ##  6  1948 June               3.6
    ##  7  1948 July               3.6
    ##  8  1948 August             3.9
    ##  9  1948 September          3.8
    ## 10  1948 October            3.7
    ## # ℹ 806 more rows

**merge the datasets**

``` r
merged_df=left_join(pols_month_df, snp_df, by=c("year","month"))
merged_final_df=left_join(merged_df,unemp_df, by=c("year","month"))
```

**Final merged table**

``` r
merged_final_df
```

    ## # A tibble: 822 × 11
    ##     year month   gov_gop sen_gop rep_gop gov_dem sen_dem rep_dem president close
    ##    <dbl> <fct>     <dbl>   <dbl>   <dbl>   <dbl>   <dbl>   <dbl> <chr>     <dbl>
    ##  1  1947 January      23      51     253      23      45     198 dem          NA
    ##  2  1947 Februa…      23      51     253      23      45     198 dem          NA
    ##  3  1947 March        23      51     253      23      45     198 dem          NA
    ##  4  1947 April        23      51     253      23      45     198 dem          NA
    ##  5  1947 May          23      51     253      23      45     198 dem          NA
    ##  6  1947 June         23      51     253      23      45     198 dem          NA
    ##  7  1947 July         23      51     253      23      45     198 dem          NA
    ##  8  1947 August       23      51     253      23      45     198 dem          NA
    ##  9  1947 Septem…      23      51     253      23      45     198 dem          NA
    ## 10  1947 October      23      51     253      23      45     198 dem          NA
    ## # ℹ 812 more rows
    ## # ℹ 1 more variable: unemployment <dbl>
…
``` r
prof_df = clean_trash_sheet("Professor Trash Wheel", "Professor")
gwynnda_df = clean_trash_sheet("Gwynnda Trash Wheel", "Gwynnda")

trash_df = bind_rows(mr_df, prof_df, gwynnda_df)
```

3.  **Final table**

``` r
trash_df
```

    ## # A tibble: 1,033 × 15
    ##    dumpster month  year date                weight_tons volume_cubic_yards
    ##       <dbl> <chr> <int> <dttm>                    <dbl>              <dbl>
    ##  1        1 May    2014 2014-05-16 00:00:00        4.31                 18
    ##  2        2 May    2014 2014-05-16 00:00:00        2.74                 13
    ##  3        3 May    2014 2014-05-16 00:00:00        3.45                 15
    ##  4        4 May    2014 2014-05-17 00:00:00        3.1                  15
    ##  5        5 May    2014 2014-05-17 00:00:00        4.06                 18
    ##  6        6 May    2014 2014-05-20 00:00:00        2.71                 13
    ##  7        7 May    2014 2014-05-21 00:00:00        1.91                  8
    ##  8        8 May    2014 2014-05-28 00:00:00        3.7                  16
    ##  9        9 June   2014 2014-06-05 00:00:00        2.52                 14
    ## 10       10 June   2014 2014-06-11 00:00:00        3.76                 18
    ## # ℹ 1,023 more rows
    ## # ℹ 9 more variables: plastic_bottles <dbl>, polystyrene <dbl>,
    ## #   cigarette_butts <dbl>, glass_bottles <dbl>, plastic_bags <dbl>,
    ## #   wrappers <dbl>, sports_balls <int>, homes_powered <dbl>, trash_wheel <chr>
…
**Final table for Zillow**

``` r
zori_df
```

    ## # A tibble: 17,284 × 4
    ##    zip_code  year month  zori
    ##    <chr>    <int> <int> <dbl>
    ##  1 10001     2015     1 3855.
    ##  2 10001     2015     2 3892.
    ##  3 10001     2015     3 3898.
    ##  4 10001     2015     4 3970.
    ##  5 10001     2015     5 4033.
    ##  6 10001     2015     6 4071.
    ##  7 10001     2015     7 4067.
    ##  8 10001     2015     8 4070.
    ##  9 10001     2015     9 4040.
    ## 10 10001     2015    10 4023.
    ## # ℹ 17,274 more rows
…
**Final table for zip code**

``` r
zipcodes_df
```

    ## # A tibble: 322 × 3
    ##    zip_code county neighborhood              
    ##    <chr>    <chr>  <chr>                     
    ##  1 10451    Bronx  High Bridge and Morrisania
    ##  2 10452    Bronx  High Bridge and Morrisania
    ##  3 10453    Bronx  Central Bronx             
    ##  4 10454    Bronx  Hunts Point and Mott Haven
    ##  5 10455    Bronx  Hunts Point and Mott Haven
    ##  6 10456    Bronx  High Bridge and Morrisania
    ##  7 10457    Bronx  Central Bronx             
    ##  8 10458    Bronx  Bronx Park and Fordham    
    ##  9 10459    Bronx  Hunts Point and Mott Haven
    ## 10 10460    Bronx  Central Bronx             
    ## # ℹ 312 more rows
…
